52.149.152.236:80
68.188.59.198:80
144.91.82.190:3128
20.50.107.111:80
50.206.25.104:80
161.35.4.201:80
68.185.57.66:80
216.75.113.182:39602
67.225.164.154:80
47.245.54.201:80
47.88.7.18:8088
168.138.219.129:3128
67.219.116.234:8080
20.186.110.157:3128
96.86.140.209:80
165.22.213.55:3128
96.113.165.182:3128
149.28.213.221:8080
24.113.38.57:48678
209.126.4.134:3128
161.82.130.170:8080
50.206.25.109:80
24.248.207.7:55443
157.230.103.189:44530
104.248.123.76:18080
50.206.25.111:80
216.169.73.65:34679
52.3.59.251:80
13.212.37.168:80
129.227.138.58:3128
18.144.17.56:3128
52.146.35.37:80
64.139.79.35:8080
132.145.18.53:80
45.32.139.132:3128
172.96.172.68:3128
45.32.136.27:3128
144.91.100.252:8081
173.46.67.172:58517
50.206.25.110:80
157.230.86.93:3128
40.121.91.147:80
34.238.59.233:8080
38.91.100.171:3128
134.122.120.49:8118
152.67.24.187:80
166.159.90.56:53281
50.206.25.106:80
185.33.169.1:999
96.9.211.200:80
38.91.100.122:3128
71.13.131.142:80